<?xml version="1.0" encoding="utf-8"?>
<!-- Generator: Adobe Illustrator 15.0.0, SVG Export Plug-In . SVG Version: 6.00 Build 0)  -->
<!DOCTYPE svg PUBLIC "-//W3C//DTD SVG 1.1//EN" "http://www.w3.org/Graphics/SVG/1.1/DTD/svg11.dtd">
<svg version="1.1" xmlns="http://www.w3.org/2000/svg" xmlns:xlink="http://www.w3.org/1999/xlink" x="0px" y="0px" width="135px"
	 height="166px" viewBox="0 0 135 166" enable-background="new 0 0 135 166" xml:space="preserve">
<g id="Layer_1" display="none">
	<g id="d6Tkd0_1_" display="inline">
		
			<image overflow="visible" width="199" height="246" id="d6Tkd0_2_" xlink:href="C23655C0.jpg"  transform="matrix(1 0 0 1 201 177)">
		</image>
	</g>
</g>
<g id="Layer_2">
	<g>
		<circle fill="#FFFFFF" cx="102.308" cy="54.874" r="30.692"/>
		<circle fill="#FFFFFF" cx="36.273" cy="21.392" r="21.392"/>
		<circle fill="#FFFFFF" cx="86.497" cy="145.091" r="17.671"/>
		<circle fill="#FFFFFF" cx="24.182" cy="113.469" r="24.182"/>
	</g>
</g>
</svg>
