<?xml version="1.0" encoding="utf-8"?>
<!-- Generator: Adobe Illustrator 20.0.0, SVG Export Plug-In . SVG Version: 6.00 Build 0)  -->
<svg version="1.1" id="Layer_1" xmlns="http://www.w3.org/2000/svg" xmlns:xlink="http://www.w3.org/1999/xlink" x="0px" y="0px"
	 viewBox="0 0 39.7 40" style="enable-background:new 0 0 39.7 40;" xml:space="preserve">
<style type="text/css">
	.st0{fill:#FFFFFF;}
	.st1{fill:none;stroke:#FFFFFF;stroke-width:2;stroke-miterlimit:10;}
</style>
<g>
	<path class="st0" d="M37.7,2v36h-36V2H37.7 M39.7,0h-40v40h40V0L39.7,0z"/>
</g>
<g>
	<line class="st1" x1="29.3" y1="29.7" x2="10" y2="10.3"/>
	<line class="st1" x1="10" y1="29.7" x2="29.3" y2="10.3"/>
</g>
</svg>
