<?xml version="1.0" encoding="utf-8"?>
<!-- Generator: Adobe Illustrator 20.0.0, SVG Export Plug-In . SVG Version: 6.00 Build 0)  -->
<svg version="1.1" id="Layer_1" xmlns="http://www.w3.org/2000/svg" xmlns:xlink="http://www.w3.org/1999/xlink" x="0px" y="0px"
	 viewBox="0 0 30 120.4" style="enable-background:new 0 0 30 120.4;" xml:space="preserve">
<style type="text/css">
	.st0{fill:#FFFFFF;}
</style>
<polygon class="st0" points="9.4,117.2 2.5,117.2 2.5,109.8 9.4,109.8 9.4,106.6 2.5,106.6 2.5,99.2 14,99.2 14,96 2.5,96 2.5,88.5 
	9.4,88.5 9.4,85.3 2.5,85.3 2.5,77.9 9.4,77.9 9.4,74.7 2.5,74.7 2.5,67.1 9.4,67.1 9.4,63.9 2.5,63.9 2.5,56.7 14,56.7 14,53.5 
	2.5,53.5 2.5,45.8 9.4,45.8 9.4,42.6 2.5,42.6 2.5,35.4 9.4,35.4 9.4,32.2 2.5,32.2 2.5,24.5 9.4,24.5 9.4,21.3 2.5,21.3 2.5,14.2 
	14,14.2 14,11 2.5,11 2.5,3.2 9.4,3.2 9.4,0 2.5,0 0,0 0,3.2 0,11 0,14.2 0,21.3 0,24.5 0,32.2 0,35.4 0,42.6 0,45.8 0,53.5 0,56.7 
	0,63.9 0,67.1 0,74.7 0,77.9 0,85.3 0,88.5 0,96 0,99.2 0,106.6 0,109.8 0,117.2 0,118.8 0,120.4 9.4,120.4 "/>
<rect x="17.5" y="52.2" class="st0" width="2.5" height="5.7"/>
<rect x="22.6" y="52.2" class="st0" width="2.5" height="5.7"/>
<rect x="17.5" y="94.2" class="st0" width="2.5" height="5.7"/>
<rect x="17.5" y="10.3" class="st0" width="2.5" height="5.7"/>
<rect x="22.6" y="10.3" class="st0" width="2.5" height="5.7"/>
<rect x="27.6" y="10.3" class="st0" width="2.5" height="5.7"/>
</svg>
