<?xml version="1.0" encoding="utf-8"?>
<!-- Generator: Adobe Illustrator 20.0.0, SVG Export Plug-In . SVG Version: 6.00 Build 0)  -->
<svg version="1.1" id="Layer_1" xmlns="http://www.w3.org/2000/svg" xmlns:xlink="http://www.w3.org/1999/xlink" x="0px" y="0px"
	 viewBox="0 0 101.3 110.6" style="enable-background:new 0 0 101.3 110.6;" xml:space="preserve">
<path d="M99.6,54.4c0.9,0,1.7-0.8,1.7-1.7v-5.9c0-0.9-0.8-1.7-1.7-1.7H85.1V6c1.7,0,3-1.4,3-3c0-1.7-1.4-3-3-3h-17c-1.7,0-3,1.4-3,3
	c0,1.7,1.4,3,3,3v39.1h-9.4V6c1.7,0,3-1.4,3-3c0-1.7-1.4-3-3-3h-17c-1.7,0-3,1.4-3,3c0,1.7,1.4,3,3,3v39.1h-9.4V6c1.7,0,3-1.4,3-3
	c0-1.7-1.4-3-3-3h-17c-1.7,0-3,1.4-3,3c0,1.7,1.4,3,3,3v39.1H1.7c-0.9,0-1.7,0.8-1.7,1.7v5.9c0,0.9,0.8,1.7,1.7,1.7h1.4v46.9H1.7
	c-0.9,0-1.7,0.8-1.7,1.7v5.9c0,0.9,0.8,1.7,1.7,1.7h97.9c0.9,0,1.7-0.8,1.7-1.7v-5.9c0-0.9-0.8-1.7-1.7-1.7h-1.4V54.4H99.6z M67.3,3
	c0-0.4,0.3-0.7,0.7-0.7h2.3h12.5h2.3c0.4,0,0.7,0.3,0.7,0.7c0,0.4-0.3,0.7-0.7,0.7h-17C67.7,3.8,67.3,3.4,67.3,3z M82.8,4.9v26.5
	v14.9H70.3V31.4V4.9H82.8z M40.9,3c0-0.4,0.3-0.7,0.7-0.7h2.3h12.5h2.3c0.4,0,0.7,0.3,0.7,0.7c0,0.4-0.3,0.7-0.7,0.7h-17
	C41.2,3.8,40.9,3.4,40.9,3z M56.4,4.9V35v11.2H43.9V35V4.9H56.4z M14.4,3c0-0.4,0.3-0.7,0.7-0.7h2.3h12.5h2.3c0.4,0,0.7,0.3,0.7,0.7
	c0,0.4-0.3,0.7-0.7,0.7h-17C14.7,3.8,14.4,3.4,14.4,3z M29.9,4.9v23.7v17.7H17.4V28.6V4.9H29.9z M99,103.6v4.7H2.3v-4.7H99z
	 M5.4,102.5V53.3h1.9v49.2H5.4z M23.7,100.9c4.7,0,8.5-3.8,8.5-8.5V54.4h9.4v37.9c0,4.7,3.8,8.5,8.5,8.5c4.7,0,8.5-3.8,8.5-8.5V54.4
	H68v37.9c0,4.7,3.8,8.5,8.5,8.5c4.7,0,8.5-3.8,8.5-8.5V54.4h6.6v46.9H9.6V54.4h5.5v37.9C15.1,97.1,19,100.9,23.7,100.9z M17.4,92.4
	V53.3h12.5v39.1c0,3.4-2.8,6.2-6.2,6.2S17.4,95.8,17.4,92.4z M43.9,92.4V53.3h12.5v39.1c0,3.4-2.8,6.2-6.2,6.2
	C46.7,98.6,43.9,95.8,43.9,92.4z M70.3,92.4V53.3h12.5v39.1c0,3.4-2.8,6.2-6.2,6.2C73.1,98.6,70.3,95.8,70.3,92.4z M94,102.5V53.3
	h1.9v49.2H94z M2.3,52.2v-4.7H99v4.7H2.3z"/>
<path d="M76.6,96.3c-2.2,0-4-1.8-4-4V53.3h7.9v39.1C80.5,94.5,78.8,96.3,76.6,96.3z"/>
<path d="M50.1,96.3c-2.2,0-4-1.8-4-4V53.3h7.9v39.1C54.1,94.5,52.3,96.3,50.1,96.3z"/>
<path d="M23.7,96.3c-2.2,0-4-1.8-4-4V53.3h7.9v39.1C27.6,94.5,25.8,96.3,23.7,96.3z"/>
<rect x="19.7" y="28.6" width="7.9" height="17.7"/>
<rect x="46.2" y="35" width="7.9" height="11.2"/>
<rect x="72.6" y="31.4" width="7.9" height="14.9"/>
</svg>
